{
  "images" : [
    {
      "idiom" : "universal",
      "filename" : "9E53523C-A428-4C16-AE7B-379E353CE6B1_1_105_c.jpeg",
      "scale" : "1x"
    },
    {
      "idiom" : "universal",
      "scale" : "2x"
    },
    {
      "idiom" : "universal",
      "scale" : "3x"
    }
  ],
  "info" : {
    "version" : 1,
    "author" : "xcode"
  }
}